…
### `GetContexts()`

``` r
search1 <- "<_Vx> <_IN>"

found <- corpuslingr::GetContexts(search=search1,corp=gnews,LW=5, RW = 5)
```

### `GetSearchFreqs()`

``` r
corpuslingr::GetSearchFreqs(found)[[1]]
## # A tibble: 608 x 3
## # Groups:   targ [608]
##               targ termDocFreq termTextFreq
##              <chr>       <int>        <int>
##  1    ACCORDING TO          13           30
##  2         SAID IN          10           17
##  3       SAID THAT           4            8
##  4           IS IN           5            6
##  5 RECOMMENDED FOR           3            6
##  6      ADDED THAT           4            5
##  7  CONTRIBUTED TO           5            5
##  8      RELATED TO           2            5
##  9    WORKING WITH           5            5
## 10    HAPPENING IN           4            4
## # ... with 598 more rows
```
…
